Subset Data Frame Rows in R | 露の世 = 我知这世界本如露水般短暂 然而 然而
…
my_data <- as_tibble(iris)
my_data
## # A tibble: 150 x 5
##   Sepal.Length Sepal.Width Petal.Length Petal.Width Species
##          <dbl>       <dbl>        <dbl>       <dbl> <fct>
## 1          5.1         3.5          1.4         0.2 setosa
## 2          4.9         3            1.4         0.2 setosa
## 3          4.7         3.2          1.3         0.2 setosa
## 4          4.6         3.1          1.5         0.2 setosa
## 5          5           3.6          1.4         0.2 setosa
## 6          5.4         3.9          1.7         0.4 setosa
## # ... with 144 more rows
…
1
2
3
4
5
6
7
8
9
10
11

my_data %>% filter(Sepal.Length > 7)
## # A tibble: 12 x 5
##   Sepal.Length Sepal.Width Petal.Length Petal.Width Species
##          <dbl>       <dbl>        <dbl>       <dbl> <fct>
## 1          7.1         3            5.9         2.1 virginica
## 2          7.6         3            6.6         2.1 virginica
## 3          7.3         2.9          6.3         1.8 virginica
## 4          7.2         3.6          6.1         2.5 virginica
## 5          7.7         3.8          6.7         2.2 virginica
## 6          7.7         2.6          6.9         2.3 virginica
## # ... with 6 more rows
…
1
2
3
4
5
6
7
8
9
10
11

my_data %>% filter(Sepal.Length > 6.7, Sepal.Width <= 3)
## # A tibble: 10 x 5
##   Sepal.Length Sepal.Width Petal.Length Petal.Width Species
##          <dbl>       <dbl>        <dbl>       <dbl> <fct>
## 1          6.8         2.8          4.8         1.4 versicolor
## 2          7.1         3            5.9         2.1 virginica
## 3          7.6         3            6.6         2.1 virginica
## 4          7.3         2.9          6.3         1.8 virginica
## 5          6.8         3            5.5         2.1 virginica
## 6          7.7         2.6          6.9         2.3 virginica
## # ... with 4 more rows
…
my_data %>% filter(
  Sepal.Length > 6.7,
  Species == "versicolor" | Species == "virginica"
  )
## # A tibble: 20 x 5
##   Sepal.Length Sepal.Width Petal.Length Petal.Width Species
##          <dbl>       <dbl>        <dbl>       <dbl> <fct>
## 1          7           3.2          4.7         1.4 versicolor
## 2          6.9         3.1          4.9         1.5 versicolor
## 3          6.8         2.8          4.8         1.4 versicolor
## 4          7.1         3            5.9         2.1 virginica
## 5          7.6         3            6.6         2.1 virginica
## 6          7.3         2.9          6.3         1.8 virginica
## # ... with 14 more rows
…
1
2
3
4
5
6
7
8
9
10
11

my_data2 %>% filter_all(any_vars(.> 2.4))
## # A tibble: 150 x 4
##   Sepal.Length Sepal.Width Petal.Length Petal.Width
##          <dbl>       <dbl>        <dbl>       <dbl>
## 1          5.1         3.5          1.4         0.2
## 2          4.9         3            1.4         0.2
## 3          4.7         3.2          1.3         0.2
## 4          4.6         3.1          1.5         0.2
## 5          5           3.6          1.4         0.2
## 6          5.4         3.9          1.7         0.4
## # ... with 144 more rows
…
1
2
3
4
5
6
7
8
9
10
11

my_data2 %>% filter_at(vars(starts_with("Sepal")), any_vars(. > 2.4))
## # A tibble: 150 x 4
##   Sepal.Length Sepal.Width Petal.Length Petal.Width
##          <dbl>       <dbl>        <dbl>       <dbl>
## 1          5.1         3.5          1.4         0.2
## 2          4.9         3            1.4         0.2
## 3          4.7         3.2          1.3         0.2
## 4          4.6         3.1          1.5         0.2
## 5          5           3.6          1.4         0.2
## 6          5.4         3.9          1.7         0.4
## # ... with 144 more rows
…
my_data %>%
  group_by(Species) %>%
  top_n(5, Sepal.Length)
## # A tibble: 16 x 5
## # Groups:   Species [3]
##   Sepal.Length Sepal.Width Petal.Length Petal.Width Species
##          <dbl>       <dbl>        <dbl>       <dbl> <fct>
## 1          5.8         4            1.2         0.2 setosa
## 2          5.7         4.4          1.5         0.4 setosa
## 3          5.7         3.8          1.7         0.3 setosa
## 4          5.5         4.2          1.4         0.2 setosa
## 5          5.5         3.5          1.3         0.2 setosa
## 6          7           3.2          4.7         1.4 versicolor
## # ... with 10 more rows
…
